{
  "id": "5ba5fda9-06c6-3b8f-2642-753ec33440a5",
  "name": "User App ENV",
  "values": [
    {
      "key": "url",
      "value": "https://funqslocu4.execute-api.ap-southeast-1.amazonaws.com/dev/",
      "description": "",
      "type": "text",
      "enabled": true
    }
  ],
  "timestamp": 1648754196708,
  "_postman_variable_scope": "environment",
  "_postman_exported_at": "2022-03-31T19:18:45.353Z",
  "_postman_exported_using": "Postman/5.5.5"
}